EESchema Schematic File Version 4
LIBS:Versterker-cache
EELAYER 26 0
EELAYER END
$Descr A4 11693 8268
encoding utf-8
Sheet 2 6
Title ""
Date ""
Rev ""
Comp ""
Comment1 ""
Comment2 ""
Comment3 ""
Comment4 ""
$EndDescr
$Comp
L Device:D D?
U 1 1 5BF34FB0
P 5000 1500
F 0 "D?" H 5000 1284 50  0000 C CNN
F 1 "1n5401" H 5000 1375 50  0000 C CNN
F 2 "" H 5000 1500 50  0001 C CNN
F 3 "~" H 5000 1500 50  0001 C CNN
	1    5000 1500
	-1   0    0    1   
$EndComp
$Comp
L Device:CP C?
U 1 1 5BF350C6
P 5250 1650
F 0 "C?" H 5368 1696 50  0000 L CNN
F 1 "220u/50V" H 5368 1605 50  0000 L CNN
F 2 "" H 5288 1500 50  0001 C CNN
F 3 "~" H 5250 1650 50  0001 C CNN
	1    5250 1650
	1    0    0    -1  
$EndComp
$Comp
L Device:C C?
U 1 1 5BF35180
P 5900 1650
F 0 "C?" H 6015 1696 50  0000 L CNN
F 1 "100k" H 6015 1605 50  0000 L CNN
F 2 "" H 5938 1500 50  0001 C CNN
F 3 "~" H 5900 1650 50  0001 C CNN
	1    5900 1650
	1    0    0    -1  
$EndComp
$Comp
L Device:R R?
U 1 1 5BF35252
P 6300 1650
F 0 "R?" H 6370 1696 50  0000 L CNN
F 1 "100k" H 6370 1605 50  0000 L CNN
F 2 "" V 6230 1650 50  0001 C CNN
F 3 "~" H 6300 1650 50  0001 C CNN
	1    6300 1650
	1    0    0    -1  
$EndComp
$Comp
L Device:R R?
U 1 1 5BF3531F
P 6300 1950
F 0 "R?" H 6370 1996 50  0000 L CNN
F 1 "100k" H 6370 1905 50  0000 L CNN
F 2 "" V 6230 1950 50  0001 C CNN
F 3 "~" H 6300 1950 50  0001 C CNN
	1    6300 1950
	1    0    0    -1  
$EndComp
$Comp
L Device:CP C?
U 1 1 5BF3540A
P 6650 1950
F 0 "C?" H 6768 1996 50  0000 L CNN
F 1 "22u" H 6768 1905 50  0000 L CNN
F 2 "" H 6688 1800 50  0001 C CNN
F 3 "~" H 6650 1950 50  0001 C CNN
	1    6650 1950
	1    0    0    -1  
$EndComp
$Comp
L Device:R R?
U 1 1 5BF354CD
P 6650 1650
F 0 "R?" H 6720 1696 50  0000 L CNN
F 1 "100k" H 6720 1605 50  0000 L CNN
F 2 "" V 6580 1650 50  0001 C CNN
F 3 "~" H 6650 1650 50  0001 C CNN
	1    6650 1650
	1    0    0    -1  
$EndComp
Wire Wire Line
	6300 1800 6650 1800
Connection ~ 6300 1800
Connection ~ 6650 1800
Wire Wire Line
	5150 1500 5250 1500
Wire Wire Line
	6000 1800 6000 2100
Wire Wire Line
	6000 2100 6300 2100
Connection ~ 6300 2100
Wire Wire Line
	6300 2100 6650 2100
Wire Wire Line
	5250 1800 5900 1800
Wire Wire Line
	5250 1500 5900 1500
Connection ~ 5250 1500
$Comp
L Amplifier_Audio:TDA2030 U?
U 1 1 5BF3BE1B
P 7750 1800
F 0 "U?" H 8091 1846 50  0000 L CNN
F 1 "TDA2030" H 8091 1755 50  0000 L CNN
F 2 "Package_TO_SOT_THT:TO-220-5_P3.4x3.7mm_StaggerOdd_Lead3.8mm_Vertical" H 7750 1800 50  0001 C CIN
F 3 "http://www.st.com/resource/en/datasheet/cd00000128.pdf" H 7750 1800 50  0001 C CNN
	1    7750 1800
	1    0    0    -1  
$EndComp
Wire Wire Line
	6300 1500 6300 1400
Wire Wire Line
	6300 1400 7650 1400
Wire Wire Line
	7650 1400 7650 1500
Connection ~ 6300 1500
Wire Wire Line
	7450 1700 7400 1700
Wire Wire Line
	7400 1700 7400 1500
Wire Wire Line
	6650 1500 7400 1500
$Comp
L Device:CP C?
U 1 1 5BF41335
P 7250 1700
F 0 "C?" V 6995 1700 50  0000 C CNN
F 1 "2u2" V 7086 1700 50  0000 C CNN
F 2 "" H 7288 1550 50  0001 C CNN
F 3 "~" H 7250 1700 50  0001 C CNN
	1    7250 1700
	0    1    1    0   
$EndComp
Connection ~ 7400 1700
Wire Wire Line
	7000 1700 7100 1700
Wire Wire Line
	4850 1500 4750 1500
Text HLabel 5300 1800 3    50   Input ~ 0
GND
Text HLabel 7000 1700 3    50   Input ~ 0
Signaal
Wire Wire Line
	6650 2100 7000 2100
Connection ~ 6650 2100
$Comp
L Device:D D?
U 1 1 5BF44CAD
P 8200 1550
F 0 "D?" V 8154 1629 50  0000 L CNN
F 1 "1n4004" V 8245 1629 50  0000 L CNN
F 2 "" H 8200 1550 50  0001 C CNN
F 3 "~" H 8200 1550 50  0001 C CNN
	1    8200 1550
	0    1    1    0   
$EndComp
$Comp
L Device:CP C?
U 1 1 5BF44E12
P 8600 1800
F 0 "C?" V 8855 1800 50  0000 C CNN
F 1 "220u" V 8764 1800 50  0000 C CNN
F 2 "" H 8638 1650 50  0001 C CNN
F 3 "~" H 8600 1800 50  0001 C CNN
	1    8600 1800
	0    -1   -1   0   
$EndComp
Wire Wire Line
	8050 1800 8200 1800
Wire Wire Line
	8200 1700 8200 1800
Connection ~ 8200 1800
Wire Wire Line
	8200 1800 8450 1800
$Comp
L Device:R R?
U 1 1 5BF4762F
P 8200 2050
F 0 "R?" H 8270 2096 50  0000 L CNN
F 1 "10" H 8270 2005 50  0000 L CNN
F 2 "" V 8130 2050 50  0001 C CNN
F 3 "~" H 8200 2050 50  0001 C CNN
	1    8200 2050
	1    0    0    -1  
$EndComp
Wire Wire Line
	8200 1900 8200 1800
$Comp
L Device:CP C?
U 1 1 5BF48B73
P 7250 2400
F 0 "C?" H 7368 2446 50  0000 L CNN
F 1 "2u2" H 7368 2355 50  0000 L CNN
F 2 "" H 7288 2250 50  0001 C CNN
F 3 "~" H 7250 2400 50  0001 C CNN
	1    7250 2400
	1    0    0    -1  
$EndComp
$Comp
L Device:R R?
U 1 1 5BF48C4C
P 7550 2400
F 0 "R?" H 7620 2446 50  0000 L CNN
F 1 "100k" H 7620 2355 50  0000 L CNN
F 2 "" V 7480 2400 50  0001 C CNN
F 3 "~" H 7550 2400 50  0001 C CNN
	1    7550 2400
	1    0    0    -1  
$EndComp
$Comp
L Device:R R?
U 1 1 5BF48D4D
P 7250 2700
F 0 "R?" H 7320 2746 50  0000 L CNN
F 1 "4k7" H 7320 2655 50  0000 L CNN
F 2 "" V 7180 2700 50  0001 C CNN
F 3 "~" H 7250 2700 50  0001 C CNN
	1    7250 2700
	1    0    0    -1  
$EndComp
$Comp
L Device:D D?
U 1 1 5BF48E21
P 7800 2400
F 0 "D?" V 7846 2321 50  0000 R CNN
F 1 "1n4004" V 7755 2321 50  0000 R CNN
F 2 "" H 7800 2400 50  0001 C CNN
F 3 "~" H 7800 2400 50  0001 C CNN
	1    7800 2400
	0    -1   -1   0   
$EndComp
Wire Wire Line
	7800 2550 7550 2550
Wire Wire Line
	7800 2100 7800 2250
Connection ~ 7650 2100
Wire Wire Line
	7550 2250 7250 2250
Wire Wire Line
	7250 2250 7250 1900
Wire Wire Line
	7250 1900 7450 1900
Connection ~ 7250 2250
$Comp
L Device:C C?
U 1 1 5BF4E763
P 8200 2350
F 0 "C?" H 8315 2396 50  0000 L CNN
F 1 "100n" H 8315 2305 50  0000 L CNN
F 2 "" H 8238 2200 50  0001 C CNN
F 3 "~" H 8200 2350 50  0001 C CNN
	1    8200 2350
	1    0    0    -1  
$EndComp
Wire Wire Line
	8200 2500 8200 2550
Wire Wire Line
	7250 2850 7000 2850
Wire Wire Line
	7000 2850 7000 2100
Connection ~ 7000 2100
Wire Wire Line
	7000 2100 7650 2100
Wire Wire Line
	8200 2550 8050 2550
Wire Wire Line
	8050 2550 8050 2100
Wire Wire Line
	7650 2100 7800 2100
Connection ~ 7800 2100
Wire Wire Line
	7800 2100 8050 2100
$Comp
L Connector:Conn_01x02_Male J?
U 1 1 5BF54E18
P 9200 1900
F 0 "J?" H 9172 1780 50  0000 R CNN
F 1 "Speaker" H 9172 1871 50  0000 R CNN
F 2 "" H 9200 1900 50  0001 C CNN
F 3 "~" H 9200 1900 50  0001 C CNN
	1    9200 1900
	-1   0    0    1   
$EndComp
Wire Wire Line
	8750 1800 9000 1800
Wire Wire Line
	9000 1900 8500 1900
Wire Wire Line
	8500 1900 8500 2550
Wire Wire Line
	8500 2550 8200 2550
Connection ~ 8200 2550
Text HLabel 8850 1900 3    50   Output ~ 0
SpeakerGND
Text HLabel 8850 1800 1    50   Output ~ 0
SpeakerSignaal
Connection ~ 5900 1500
Connection ~ 5900 1800
Wire Wire Line
	5900 1800 6000 1800
Wire Wire Line
	5900 1500 6300 1500
Wire Wire Line
	8200 1400 7650 1400
Connection ~ 7650 1400
Text HLabel 4750 1500 0    50   Input ~ 0
VCC
$EndSCHEMATC
