EESchema Schematic File Version 4
LIBS:Versterker-cache
EELAYER 26 0
EELAYER END
$Descr A4 11693 8268
encoding utf-8
Sheet 6 6
Title ""
Date ""
Rev ""
Comp ""
Comment1 ""
Comment2 ""
Comment3 ""
Comment4 ""
$EndDescr
Text HLabel 2100 2600 0    50   Input ~ 0
Signal1In
Text HLabel 2100 2950 0    50   Input ~ 0
Signal2In
Text HLabel 4350 2700 2    50   Output ~ 0
SignalMixed
$EndSCHEMATC
