EESchema Schematic File Version 4
LIBS:Versterker-cache
EELAYER 26 0
EELAYER END
$Descr A4 11693 8268
encoding utf-8
Sheet 3 6
Title ""
Date ""
Rev ""
Comp ""
Comment1 ""
Comment2 ""
Comment3 ""
Comment4 ""
$EndDescr
$Comp
L Regulator_Linear:LM317_TO3 U1
U 1 1 5BEFC550
P 2800 1400
F 0 "U1" H 2800 1642 50  0000 C CNN
F 1 "LM317_TO3" H 2800 1551 50  0000 C CNN
F 2 "Package_TO_SOT_THT:TO-3" H 2800 1600 50  0001 C CIN
F 3 "http://www.ti.com/lit/ds/symlink/lm317.pdf" H 2800 1400 50  0001 C CNN
	1    2800 1400
	1    0    0    -1  
$EndComp
$Comp
L Device:C C2
U 1 1 5BEFC689
P 2800 1850
F 0 "C2" H 2915 1896 50  0000 L CNN
F 1 "0.1u" H 2915 1805 50  0000 L CNN
F 2 "" H 2838 1700 50  0001 C CNN
F 3 "~" H 2800 1850 50  0001 C CNN
	1    2800 1850
	1    0    0    -1  
$EndComp
$Comp
L Device:R R1
U 1 1 5BEFC719
P 3200 1550
F 0 "R1" H 3270 1596 50  0000 L CNN
F 1 "220" H 3270 1505 50  0000 L CNN
F 2 "" V 3130 1550 50  0001 C CNN
F 3 "~" H 3200 1550 50  0001 C CNN
	1    3200 1550
	1    0    0    -1  
$EndComp
$Comp
L Device:R R2
U 1 1 5BEFC7FD
P 3200 1850
F 0 "R2" H 3270 1896 50  0000 L CNN
F 1 "1k" H 3270 1805 50  0000 L CNN
F 2 "" V 3130 1850 50  0001 C CNN
F 3 "~" H 3200 1850 50  0001 C CNN
	1    3200 1850
	1    0    0    -1  
$EndComp
$Comp
L Device:C C3
U 1 1 5BEFC895
P 3550 1650
F 0 "C3" H 3665 1696 50  0000 L CNN
F 1 "100n" H 3665 1605 50  0000 L CNN
F 2 "" H 3588 1500 50  0001 C CNN
F 3 "~" H 3550 1650 50  0001 C CNN
	1    3550 1650
	1    0    0    -1  
$EndComp
$Comp
L Device:C C4
U 1 1 5BEFC91A
P 3950 1550
F 0 "C4" H 4065 1596 50  0000 L CNN
F 1 "680n" H 4065 1505 50  0000 L CNN
F 2 "" H 3988 1400 50  0001 C CNN
F 3 "~" H 3950 1550 50  0001 C CNN
	1    3950 1550
	1    0    0    -1  
$EndComp
$Comp
L Device:R R3
U 1 1 5BEFC9B3
P 3950 1850
F 0 "R3" H 4020 1896 50  0000 L CNN
F 1 "470k" H 4020 1805 50  0000 L CNN
F 2 "" V 3880 1850 50  0001 C CNN
F 3 "~" H 3950 1850 50  0001 C CNN
	1    3950 1850
	1    0    0    -1  
$EndComp
Wire Wire Line
	2800 1700 3200 1700
Connection ~ 2800 1700
Connection ~ 3200 1700
Wire Wire Line
	2800 2000 3200 2000
Wire Wire Line
	3200 2000 3550 2000
Connection ~ 3200 2000
Wire Wire Line
	3950 1400 3550 1400
Wire Wire Line
	3100 1400 3200 1400
Connection ~ 3200 1400
Wire Wire Line
	3550 1500 3550 1400
Connection ~ 3550 1400
Wire Wire Line
	3550 1400 3200 1400
Wire Wire Line
	3550 1800 3550 2000
Connection ~ 3550 2000
Wire Wire Line
	3550 2000 3950 2000
$Comp
L Regulator_Linear:LM317_TO3 U2
U 1 1 5BEFD024
P 2800 2300
F 0 "U2" H 2800 2542 50  0000 C CNN
F 1 "LM317_TO3" H 2800 2451 50  0000 C CNN
F 2 "Package_TO_SOT_THT:TO-3" H 2800 2500 50  0001 C CIN
F 3 "http://www.ti.com/lit/ds/symlink/lm317.pdf" H 2800 2300 50  0001 C CNN
	1    2800 2300
	1    0    0    -1  
$EndComp
$Comp
L Device:C C5
U 1 1 5BEFD02B
P 2800 2750
F 0 "C5" H 2915 2796 50  0000 L CNN
F 1 "0.1u" H 2915 2705 50  0000 L CNN
F 2 "" H 2838 2600 50  0001 C CNN
F 3 "~" H 2800 2750 50  0001 C CNN
	1    2800 2750
	1    0    0    -1  
$EndComp
$Comp
L Device:R R4
U 1 1 5BEFD032
P 3200 2450
F 0 "R4" H 3270 2496 50  0000 L CNN
F 1 "220" H 3270 2405 50  0000 L CNN
F 2 "" V 3130 2450 50  0001 C CNN
F 3 "~" H 3200 2450 50  0001 C CNN
	1    3200 2450
	1    0    0    -1  
$EndComp
$Comp
L Device:R R5
U 1 1 5BEFD039
P 3200 2750
F 0 "R5" H 3270 2796 50  0000 L CNN
F 1 "660" H 3270 2705 50  0000 L CNN
F 2 "" V 3130 2750 50  0001 C CNN
F 3 "~" H 3200 2750 50  0001 C CNN
	1    3200 2750
	1    0    0    -1  
$EndComp
$Comp
L Device:C C6
U 1 1 5BEFD040
P 3550 2550
F 0 "C6" H 3665 2596 50  0000 L CNN
F 1 "100nf" H 3665 2505 50  0000 L CNN
F 2 "" H 3588 2400 50  0001 C CNN
F 3 "~" H 3550 2550 50  0001 C CNN
	1    3550 2550
	1    0    0    -1  
$EndComp
$Comp
L Device:C C7
U 1 1 5BEFD047
P 3950 2450
F 0 "C7" H 4065 2496 50  0000 L CNN
F 1 "680n" H 4065 2405 50  0000 L CNN
F 2 "" H 3988 2300 50  0001 C CNN
F 3 "~" H 3950 2450 50  0001 C CNN
	1    3950 2450
	1    0    0    -1  
$EndComp
$Comp
L Device:R R6
U 1 1 5BEFD04E
P 3950 2750
F 0 "R6" H 4020 2796 50  0000 L CNN
F 1 "470k" H 4020 2705 50  0000 L CNN
F 2 "" V 3880 2750 50  0001 C CNN
F 3 "~" H 3950 2750 50  0001 C CNN
	1    3950 2750
	1    0    0    -1  
$EndComp
Wire Wire Line
	2800 2600 3200 2600
Connection ~ 2800 2600
Connection ~ 3200 2600
Wire Wire Line
	2800 2900 3200 2900
Wire Wire Line
	3200 2900 3550 2900
Connection ~ 3200 2900
Wire Wire Line
	3950 2300 3550 2300
Wire Wire Line
	3100 2300 3200 2300
Connection ~ 3200 2300
Wire Wire Line
	3550 2400 3550 2300
Connection ~ 3550 2300
Wire Wire Line
	3550 2300 3200 2300
Wire Wire Line
	3550 2700 3550 2900
Connection ~ 3550 2900
Wire Wire Line
	3550 2900 3950 2900
Wire Wire Line
	2500 1400 2500 2300
$Comp
L Device:LED D1
U 1 1 5BEFD6F8
P 4300 2450
F 0 "D1" V 4338 2333 50  0000 R CNN
F 1 "LED" V 4247 2333 50  0000 R CNN
F 2 "" H 4300 2450 50  0001 C CNN
F 3 "~" H 4300 2450 50  0001 C CNN
	1    4300 2450
	0    -1   -1   0   
$EndComp
$Comp
L Device:R R7
U 1 1 5BEFD7B6
P 4300 2750
F 0 "R7" H 4370 2796 50  0000 L CNN
F 1 "220" H 4370 2705 50  0000 L CNN
F 2 "" V 4230 2750 50  0001 C CNN
F 3 "~" H 4300 2750 50  0001 C CNN
	1    4300 2750
	1    0    0    -1  
$EndComp
Wire Wire Line
	3950 2300 4300 2300
Connection ~ 3950 2300
Wire Wire Line
	3950 2900 4300 2900
Connection ~ 3950 2900
$Comp
L Device:C C1
U 1 1 5BEFE62E
P 2200 1700
F 0 "C1" H 2315 1746 50  0000 L CNN
F 1 "0.1u" H 2315 1655 50  0000 L CNN
F 2 "" H 2238 1550 50  0001 C CNN
F 3 "~" H 2200 1700 50  0001 C CNN
	1    2200 1700
	1    0    0    -1  
$EndComp
Wire Wire Line
	2200 1850 2200 2000
Wire Wire Line
	2200 2000 2800 2000
Connection ~ 2800 2000
Wire Wire Line
	2800 2900 2450 2900
Connection ~ 2800 2900
Connection ~ 2200 2000
Wire Wire Line
	2200 1550 2200 1400
Wire Wire Line
	2200 1400 2500 1400
Connection ~ 2500 1400
$Comp
L Switch:SW_Push SW1
U 1 1 5BEFF93A
P 1700 1400
F 0 "SW1" H 1700 1685 50  0000 C CNN
F 1 "Aan/Uit" H 1700 1594 50  0000 C CNN
F 2 "" H 1700 1600 50  0001 C CNN
F 3 "" H 1700 1600 50  0001 C CNN
	1    1700 1400
	1    0    0    -1  
$EndComp
Wire Wire Line
	2200 1400 1900 1400
Connection ~ 2200 1400
$Comp
L Device:Battery BT1
U 1 1 5BEFFFC8
P 1250 1600
F 0 "BT1" H 1358 1646 50  0000 L CNN
F 1 "9v" H 1358 1555 50  0000 L CNN
F 2 "" V 1250 1660 50  0001 C CNN
F 3 "~" V 1250 1660 50  0001 C CNN
	1    1250 1600
	1    0    0    -1  
$EndComp
$Comp
L Device:Battery BT2
U 1 1 5BF002E9
P 1250 2000
F 0 "BT2" H 1358 2046 50  0000 L CNN
F 1 "9v" H 1358 1955 50  0000 L CNN
F 2 "" V 1250 2060 50  0001 C CNN
F 3 "~" V 1250 2060 50  0001 C CNN
	1    1250 2000
	1    0    0    -1  
$EndComp
$Comp
L power:GND #PWR?
U 1 1 5BF004DD
P 2450 2900
F 0 "#PWR?" H 2450 2650 50  0001 C CNN
F 1 "GND" H 2455 2727 50  0000 C CNN
F 2 "" H 2450 2900 50  0001 C CNN
F 3 "" H 2450 2900 50  0001 C CNN
	1    2450 2900
	1    0    0    -1  
$EndComp
Connection ~ 2450 2900
Wire Wire Line
	2450 2900 2200 2900
$Comp
L power:+12V #PWR?
U 1 1 5BF0097C
P 900 1400
F 0 "#PWR?" H 900 1250 50  0001 C CNN
F 1 "+12V" H 915 1573 50  0000 C CNN
F 2 "" H 900 1400 50  0001 C CNN
F 3 "" H 900 1400 50  0001 C CNN
	1    900  1400
	1    0    0    -1  
$EndComp
Wire Wire Line
	900  1400 1250 1400
Connection ~ 1250 1400
Wire Wire Line
	1250 1400 1500 1400
Wire Wire Line
	1250 2200 2200 2200
Wire Wire Line
	2200 2000 2200 2200
Connection ~ 2200 2200
Wire Wire Line
	2200 2200 2200 2900
Text HLabel 1050 1400 1    50   Input ~ 0
ExterneVoeding+
Text HLabel 1250 1450 0    50   Input ~ 0
BatterijVoeding+
Text HLabel 1250 2200 0    50   Input ~ 0
BatterijVoedingGND
Text HLabel 2200 2900 0    50   Input ~ 0
ExterneVoedingGND
Text HLabel 3950 1400 2    50   Output ~ 0
7V_VCC
Text HLabel 4300 2300 2    50   Output ~ 0
5V_VCC
Wire Wire Line
	3950 2000 4400 2000
Connection ~ 3950 2000
Text HLabel 4400 2000 2    50   Output ~ 0
GND
$EndSCHEMATC
