EESchema Schematic File Version 4
LIBS:Versterker-cache
EELAYER 26 0
EELAYER END
$Descr A4 11693 8268
encoding utf-8
Sheet 5 6
Title ""
Date ""
Rev ""
Comp ""
Comment1 ""
Comment2 ""
Comment3 ""
Comment4 ""
$EndDescr
Text HLabel 2200 1700 0    50   Input ~ 0
SignaIn
$EndSCHEMATC
